{
    "globals": {
        "sap": true,
        "before": true,
        "browser": true,
        "history": true,
        "document": true,
        "window": true,
        "SELECT": true,
        "INSERT": true,
        "UPDATE": true,
        "DELETE": true,
        "CREATE": true,
        "DROP": true,
        "cds": true,
        "jQuery": true
    }
}
